skeleton/warmup/divsim.vcd
$date
	Sun Jun  4 21:42:23 2023
$end
$version
	Icarus Verilog
$end
$timescale
	1s
$end
$scope module DivisionTestbench $end
$var wire 32 ! rres [31:0] $end
$var wire 32 " qres [31:0] $end
$var reg 1 # clk $end
$var reg 1 $ s $end
$scope module divider $end
$var wire 32 % a [31:0] $end
$var wire 32 & b [31:0] $end
$var wire 1 # clock $end
$var wire 32 ' q [31:0] $end
$var wire 32 ( r [31:0] $end
$var wire 1 $ start $end
$var reg 32 ) count [31:0] $end
$var reg 32 * dit [31:0] $end
$var reg 32 + div [31:0] $end
$var reg 32 , rem [31:0] $end
$upscope $end
$upscope $end
$enddefinitions $end
#0
$dumpvars
bx ,
bx +
bx *
b0 )
bx (
bx '
b11 &
b111 %
0$
1#
bx "
bx !
$end
#1
1$
#2
0#
#4
b1 )
b111 "
b111 '
b111 *
b0 !
b0 (
b0 ,
b11 +
1#
#5
0$
#6
0#
#8
b1110 "
b1110 '
b1110 *
b10 )
1#
#10
0#
#12
b11100 "
b11100 '
b11100 *
b11 )
1#
#14
0#
#16
b111000 "
b111000 '
b111000 *
b100 )
1#
#18
0#
#20
b1110000 "
b1110000 '
b1110000 *
b101 )
1#
#22
0#
#24
b11100000 "
b11100000 '
b11100000 *
b110 )
1#
#26
0#
#28
b111000000 "
b111000000 '
b111000000 *
b111 )
1#
#30
0#
#32
b1110000000 "
b1110000000 '
b1110000000 *
b1000 )
1#
#34
0#
#36
b11100000000 "
b11100000000 '
b11100000000 *
b1001 )
1#
#38
0#
#40
b111000000000 "
b111000000000 '
b111000000000 *
b1010 )
1#
#42
0#
#44
b1110000000000 "
b1110000000000 '
b1110000000000 *
b1011 )
1#
#46
0#
#48
b11100000000000 "
b11100000000000 '
b11100000000000 *
b1100 )
1#
#50
0#
#52
b111000000000000 "
b111000000000000 '
b111000000000000 *
b1101 )
1#
#54
0#
#56
b1110000000000000 "
b1110000000000000 '
b1110000000000000 *
b1110 )
1#
#58
0#
#60
b11100000000000000 "
b11100000000000000 '
b11100000000000000 *
b1111 )
1#
#62
0#
#64
b111000000000000000 "
b111000000000000000 '
b111000000000000000 *
b10000 )
1#
#66
0#
#68
b1110000000000000000 "
b1110000000000000000 '
b1110000000000000000 *
b10001 )
1#
#70
0#
#72
b11100000000000000000 "
b11100000000000000000 '
b11100000000000000000 *
b10010 )
1#
#74
0#
#76
b111000000000000000000 "
b111000000000000000000 '
b111000000000000000000 *
b10011 )
1#
#78
0#
#80
b1110000000000000000000 "
b1110000000000000000000 '
b1110000000000000000000 *
b10100 )
1#
#82
0#
#84
b11100000000000000000000 "
b11100000000000000000000 '
b11100000000000000000000 *
b10101 )
1#
#86
0#
#88
b111000000000000000000000 "
b111000000000000000000000 '
b111000000000000000000000 *
b10110 )
1#
#90
0#
#92
b1110000000000000000000000 "
b1110000000000000000000000 '
b1110000000000000000000000 *
b10111 )
1#
#94
0#
#96
b11100000000000000000000000 "
b11100000000000000000000000 '
b11100000000000000000000000 *
b11000 )
1#
#98
0#
#100
b111000000000000000000000000 "
b111000000000000000000000000 '
b111000000000000000000000000 *
b11001 )
1#
#102
0#
#104
b1110000000000000000000000000 "
b1110000000000000000000000000 '
b1110000000000000000000000000 *
b11010 )
1#
#106
0#
#108
b11100000000000000000000000000 "
b11100000000000000000000000000 '
b11100000000000000000000000000 *
b11011 )
1#
#110
0#
#112
b111000000000000000000000000000 "
b111000000000000000000000000000 '
b111000000000000000000000000000 *
b11100 )
1#
#114
0#
#116
b1110000000000000000000000000000 "
b1110000000000000000000000000000 '
b1110000000000000000000000000000 *
b11101 )
1#
#118
0#
#120
b11100000000000000000000000000000 "
b11100000000000000000000000000000 '
b11100000000000000000000000000000 *
b11110 )
1#
#122
0#
#124
b11000000000000000000000000000000 "
b11000000000000000000000000000000 '
b11000000000000000000000000000000 *
b1 !
b1 (
b1 ,
b11111 )
1#
#126
0#
#128
b10000000000000000000000000000001 "
b10000000000000000000000000000001 '
b10000000000000000000000000000001 *
b0 !
b0 (
b0 ,
b100000 )
1#
#130
0#
#132
b10 "
b10 '
b10 *
b1 !
b1 (
b1 ,
b100001 )
1#
